{"failedCount":0,"prefixedPath":"src\/test\/resources\/karate\/users\/user.feature","packageQualifiedName":"src.test.resources.karate.users.user","loopIndex":-1,"relativePath":"src\/test\/resources\/karate\/users\/user.feature","scenarioResults":[{"sectionIndex":0,"stepResults":[{"result":{"nanos":1498500,"millis":1.4985,"status":"passed"},"step":{"background":true,"line":4,"prefix":"*","index":0,"text":"url api.reqresURL"}},{"result":{"nanos":781800,"millis":0.7818,"status":"passed"},"step":{"line":8,"prefix":"*","index":0,"text":"def pathUser = '\/api\/users?page=2'"}},{"result":{"nanos":378300,"millis":0.3783,"status":"passed"},"step":{"line":9,"prefix":"Given","index":1,"text":"path pathUser"}},{"result":{"nanos":1261690200,"millis":1261.6902,"status":"passed"},"step":{"line":10,"prefix":"When","index":2,"text":"method GET"},"stepLog":"21:10:37.047 request:\n1 > GET https:\/\/reqres.in\/api\/users%3Fpage=2\n1 > Host: reqres.in\n1 > Connection: Keep-Alive\n1 > User-Agent: Apache-HttpClient\/4.5.13 (Java\/11.0.8)\n1 > Accept-Encoding: gzip,deflate\n\n\n21:10:38.159 response time in milliseconds: 1109\n1 < 200\n1 < Date: Tue, 14 Mar 2023 02:10:40 GMT\n1 < Content-Type: application\/json; charset=utf-8\n1 < Transfer-Encoding: chunked\n1 < Connection: keep-alive\n1 < X-Powered-By: Express\n1 < Access-Control-Allow-Origin: *\n1 < Etag: W\/\"2c1-N6Rqerxquq2kgQhL51EiSg4x0R8\"\n1 < Via: 1.1 vegur\n1 < Cache-Control: max-age=14400\n1 < CF-Cache-Status: REVALIDATED\n1 < Report-To: {\"endpoints\":[{\"url\":\"https:\\\/\\\/a.nel.cloudflare.com\\\/report\\\/v3?s=FPj7WjPory3m1RGIKiGo%2BpdmCXaZKtdY%2B%2FQOzw0GSz59nRE8JWbdXFdf%2FnnPgYsOOqFlIt0KFtqbBkONDj2%2F57DjOnGkALbO3wvTUiFNLgMOjj1iYZi9XxfH8w%3D%3D\"}],\"group\":\"cf-nel\",\"max_age\":604800}\n1 < NEL: {\"success_fraction\":0,\"report_to\":\"cf-nel\",\"max_age\":604800}\n1 < Vary: Accept-Encoding\n1 < Server: cloudflare\n1 < CF-RAY: 7a78fb47ee3231f8-MIA\n{\"page\":1,\"per_page\":6,\"total\":12,\"total_pages\":2,\"data\":[{\"id\":1,\"name\":\"cerulean\",\"year\":2000,\"color\":\"#98B2D1\",\"pantone_value\":\"15-4020\"},{\"id\":2,\"name\":\"fuchsia rose\",\"year\":2001,\"color\":\"#C74375\",\"pantone_value\":\"17-2031\"},{\"id\":3,\"name\":\"true red\",\"year\":2002,\"color\":\"#BF1932\",\"pantone_value\":\"19-1664\"},{\"id\":4,\"name\":\"aqua sky\",\"year\":2003,\"color\":\"#7BC4C4\",\"pantone_value\":\"14-4811\"},{\"id\":5,\"name\":\"tigerlily\",\"year\":2004,\"color\":\"#E2583E\",\"pantone_value\":\"17-1456\"},{\"id\":6,\"name\":\"blue turquoise\",\"year\":2005,\"color\":\"#53B0AE\",\"pantone_value\":\"15-5217\"}],\"support\":{\"url\":\"https:\/\/reqres.in\/#support-heading\",\"text\":\"To keep ReqRes free, contributions towards server costs are appreciated!\"}}\n\n"},{"result":{"nanos":55700,"millis":0.0557,"status":"passed"},"step":{"line":11,"prefix":"Then","index":3,"text":"status 200"}},{"result":{"nanos":7496500,"millis":7.4965,"status":"passed"},"step":{"line":12,"prefix":"*","index":4,"text":"print response"},"stepLog":"21:10:38.202 [print] {\n  \"page\": 1,\n  \"per_page\": 6,\n  \"total\": 12,\n  \"total_pages\": 2,\n  \"data\": [\n    {\n      \"id\": 1,\n      \"name\": \"cerulean\",\n      \"year\": 2000,\n      \"color\": \"#98B2D1\",\n      \"pantone_value\": \"15-4020\"\n    },\n    {\n      \"id\": 2,\n      \"name\": \"fuchsia rose\",\n      \"year\": 2001,\n      \"color\": \"#C74375\",\n      \"pantone_value\": \"17-2031\"\n    },\n    {\n      \"id\": 3,\n      \"name\": \"true red\",\n      \"year\": 2002,\n      \"color\": \"#BF1932\",\n      \"pantone_value\": \"19-1664\"\n    },\n    {\n      \"id\": 4,\n      \"name\": \"aqua sky\",\n      \"year\": 2003,\n      \"color\": \"#7BC4C4\",\n      \"pantone_value\": \"14-4811\"\n    },\n    {\n      \"id\": 5,\n      \"name\": \"tigerlily\",\n      \"year\": 2004,\n      \"color\": \"#E2583E\",\n      \"pantone_value\": \"17-1456\"\n    },\n    {\n      \"id\": 6,\n      \"name\": \"blue turquoise\",\n      \"year\": 2005,\n      \"color\": \"#53B0AE\",\n      \"pantone_value\": \"15-5217\"\n    }\n  ],\n  \"support\": {\n    \"url\": \"https:\/\/reqres.in\/#support-heading\",\n    \"text\": \"To keep ReqRes free, contributions towards server costs are appreciated!\"\n  }\n}\n \n"}],"line":7,"description":"","durationMillis":1271.901,"failed":false,"tags":["ListarUsuarios"],"executorName":"main","name":"Consultar usuarios","startTime":1678759835861,"refId":"[1:7]","endTime":1678759838204,"exampleIndex":-1}],"callDepth":0,"name":"Yo como usuario requiero consumir un usuarios","description":"","resultDate":"2023-03-13 09:10:38 p. m.","durationMillis":1271.901,"passedCount":1}